<?xml version="1.0" encoding="UTF-8" standalone="no"?>
<!-- Created with Inkscape (http://www.inkscape.org/) -->

<svg
   xmlns:dc="http://purl.org/dc/elements/1.1/"
   xmlns:cc="http://creativecommons.org/ns#"
   xmlns:rdf="http://www.w3.org/1999/02/22-rdf-syntax-ns#"
   xmlns:svg="http://www.w3.org/2000/svg"
   xmlns="http://www.w3.org/2000/svg"
   xmlns:sodipodi="http://sodipodi.sourceforge.net/DTD/sodipodi-0.dtd"
   xmlns:inkscape="http://www.inkscape.org/namespaces/inkscape"
   width="105mm"
   height="74mm"
   id="svg2"
   version="1.1"
   inkscape:version="0.92.2 5c3e80d, 2017-08-06"
   sodipodi:docname="sobre_los_autos_voladores_y_la_tasa_decreciente_de_ganancia.svg"
   inkscape:export-filename="/home/fauno/autos_voladores.png"
   inkscape:export-xdpi="108.86"
   inkscape:export-ydpi="108.86">
  <defs
     id="defs4" />
  <sodipodi:namedview
     id="base"
     pagecolor="#ffffff"
     bordercolor="#666666"
     borderopacity="1.0"
     inkscape:pageopacity="0.0"
     inkscape:pageshadow="2"
     inkscape:zoom="0.74725609"
     inkscape:cx="109.00028"
     inkscape:cy="-11.979136"
     inkscape:document-units="mm"
     inkscape:current-layer="layer1"
     showgrid="false"
     showguides="false"
     inkscape:guide-bbox="true"
     units="mm"
     inkscape:window-width="1280"
     inkscape:window-height="738"
     inkscape:window-x="0"
     inkscape:window-y="62"
     inkscape:window-maximized="0">
    <sodipodi:guide
       orientation="1,0"
       position="396.85039,0"
       id="guide3168"
       inkscape:locked="false" />
    <sodipodi:guide
       position="755.90551,0"
       orientation="1,0"
       id="guide1708"
       inkscape:locked="false"
       inkscape:label=""
       inkscape:color="rgb(0,0,255)" />
    <sodipodi:guide
       position="434.64567,0"
       orientation="1,0"
       id="guide1710"
       inkscape:locked="false"
       inkscape:label=""
       inkscape:color="rgb(0,0,255)" />
    <sodipodi:guide
       position="359.05512,34.015748"
       orientation="1,0"
       id="guide1734"
       inkscape:locked="false"
       inkscape:label=""
       inkscape:color="rgb(0,0,255)" />
    <sodipodi:guide
       position="37.795276,0"
       orientation="1,0"
       id="guide1736"
       inkscape:locked="false"
       inkscape:label=""
       inkscape:color="rgb(0,0,255)" />
    <sodipodi:guide
       position="0,37.795276"
       orientation="0,1"
       id="guide1757"
       inkscape:locked="false"
       inkscape:label=""
       inkscape:color="rgb(0,0,255)" />
  </sodipodi:namedview>
  <metadata
     id="metadata7">
    <rdf:RDF>
      <cc:Work
         rdf:about="">
        <dc:format>image/svg+xml</dc:format>
        <dc:type
           rdf:resource="http://purl.org/dc/dcmitype/StillImage" />
        <dc:title></dc:title>
      </cc:Work>
    </rdf:RDF>
  </metadata>
  <g
     inkscape:label="Capa 1"
     inkscape:groupmode="layer"
     id="layer1"
     transform="translate(0,-842.83459)">
    <g
       id="g3847"
       transform="matrix(0.10929874,0,0,0.10976979,404.29296,1009.0848)"
       inkscape:export-filename="/srv/http/kiwwwi.com.ar/pastes/utopia-pirata-2.png"
       inkscape:export-xdpi="149"
       inkscape:export-ydpi="149" />
    <rect
       y="842.83459"
       x="0"
       height="279.68503"
       width="396.8504"
       id="rect3033"
       style="fill:#aad400;fill-opacity:1;stroke-width:0.53156465" />
    <g
       id="g2019"
       transform="translate(0,-46.086425)">
      <rect
         y="908.15125"
         x="0"
         height="184.86426"
         width="396.8504"
         id="rect3035"
         style="fill:#ffffff;stroke-width:0.75424594" />
      <text
         transform="scale(0.99999611,1.0000039)"
         id="text1702"
         y="1006.4688"
         x="360.60593"
         style="font-style:normal;font-variant:normal;font-weight:normal;font-stretch:normal;font-size:75.23926544px;line-height:1.25;font-family:'League Gothic';-inkscape-font-specification:'League Gothic';text-align:end;letter-spacing:0px;word-spacing:0px;text-anchor:end;fill:#000000;fill-opacity:1;stroke:none;stroke-width:4.80732632px;stroke-linecap:butt;stroke-linejoin:miter;stroke-opacity:1"
         xml:space="preserve"><tspan
           style="stroke-width:4.80732632px"
           y="1006.4688"
           x="360.60593"
           id="tspan1700"
           sodipodi:role="line">autos voladores</tspan></text>
      <text
         transform="scale(0.99997351,1.0000265)"
         xml:space="preserve"
         style="font-style:normal;font-variant:normal;font-weight:normal;font-stretch:normal;font-size:35.25300598px;line-height:1.25;font-family:'League Gothic';-inkscape-font-specification:'League Gothic';text-align:end;letter-spacing:0px;word-spacing:0px;text-anchor:end;fill:#000000;fill-opacity:1;stroke:none;stroke-width:2.25244999px;stroke-linecap:butt;stroke-linejoin:miter;stroke-opacity:1"
         x="359.8143"
         y="1040.0076"
         id="text1706"><tspan
           style="stroke-width:2.25244999px"
           sodipodi:role="line"
           id="tspan1704"
           x="359.8143"
           y="1040.0076">y la tasa decreciente de ganancia</tspan></text>
      <text
         id="text1724"
         y="948.01001"
         x="37.16172"
         style="font-style:normal;font-variant:normal;font-weight:normal;font-stretch:normal;font-size:35.25300598px;line-height:1.25;font-family:'League Gothic';-inkscape-font-specification:'League Gothic';text-align:start;letter-spacing:0px;word-spacing:0px;text-anchor:start;fill:#000000;fill-opacity:1;stroke:none;stroke-width:2.25244999px;stroke-linecap:butt;stroke-linejoin:miter;stroke-opacity:1"
         xml:space="preserve"
         transform="scale(0.99997351,1.0000265)"><tspan
           y="948.01001"
           x="37.16172"
           id="tspan1722"
           sodipodi:role="line"
           style="text-align:start;text-anchor:start;stroke-width:2.25244999px">Sobre los</tspan></text>
      <text
         transform="scale(0.99997351,1.0000265)"
         xml:space="preserve"
         style="font-style:normal;font-variant:normal;font-weight:normal;font-stretch:normal;font-size:35.25300598px;line-height:1.25;font-family:'League Gothic';-inkscape-font-specification:'League Gothic';text-align:start;letter-spacing:0px;word-spacing:0px;text-anchor:start;fill:#000000;fill-opacity:1;stroke:none;stroke-width:2.25244999px;stroke-linecap:butt;stroke-linejoin:miter;stroke-opacity:1"
         x="225.16679"
         y="1084.0062"
         id="text1765"><tspan
           style="text-align:start;text-anchor:start;stroke-width:2.25244999px"
           sodipodi:role="line"
           id="tspan1763"
           x="225.16679"
           y="1084.0062">David Graeber</tspan></text>
    </g>
  </g>
</svg>
